<?xml version="1.0" encoding="UTF-8" standalone="no"?>
<!-- Created with Inkscape (http://www.inkscape.org/) -->

<svg
   xmlns:dc="http://purl.org/dc/elements/1.1/"
   xmlns:cc="http://creativecommons.org/ns#"
   xmlns:rdf="http://www.w3.org/1999/02/22-rdf-syntax-ns#"
   xmlns:svg="http://www.w3.org/2000/svg"
   xmlns="http://www.w3.org/2000/svg"
   xmlns:xlink="http://www.w3.org/1999/xlink"
   xmlns:sodipodi="http://sodipodi.sourceforge.net/DTD/sodipodi-0.dtd"
   xmlns:inkscape="http://www.inkscape.org/namespaces/inkscape"
   width="24"
   height="24"
   id="svg2"
   sodipodi:version="0.32"
   inkscape:version="0.48.3.1 r9886"
   version="1.0"
   sodipodi:docname="incoming.svg"
   inkscape:output_extension="org.inkscape.output.svg.inkscape"
   sodipodi:modified="true">
  <defs
     id="defs4">
    <linearGradient
       y2="13.920053"
       x2="6.8378897"
       y1="12.625902"
       x1="2.0651877"
       gradientTransform="matrix(-1,0,0,1,32.04188,-2.86473)"
       gradientUnits="userSpaceOnUse"
       id="linearGradient2491"
       xlink:href="#linearGradient4269"
       inkscape:collect="always" />
    <linearGradient
       y2="12.113755"
       x2="7.293807"
       y1="16.110582"
       x1="11.408385"
       gradientTransform="translate(0.426158,-2.762136)"
       gradientUnits="userSpaceOnUse"
       id="linearGradient2489"
       xlink:href="#linearGradient4269"
       inkscape:collect="always" />
    <linearGradient
       y2="13.35532"
       x2="23.888865"
       y1="11.264216"
       x1="31.692968"
       gradientTransform="translate(-0.947018,-0.885198)"
       gradientUnits="userSpaceOnUse"
       id="linearGradient2487"
       xlink:href="#linearGradient4183"
       inkscape:collect="always" />
    <linearGradient
       y2="12.949513"
       x2="2.7672646"
       y1="12.115559"
       x1="10.57493"
       gradientTransform="translate(1.262691,-1.100752)"
       gradientUnits="userSpaceOnUse"
       id="linearGradient2485"
       xlink:href="#linearGradient4183"
       inkscape:collect="always" />
    <linearGradient
       y2="10.576721"
       x2="14.013638"
       y1="2.7028866"
       x1="15.647213"
       gradientUnits="userSpaceOnUse"
       id="linearGradient2483"
       xlink:href="#linearGradient4183"
       inkscape:collect="always" />
    <linearGradient
       inkscape:collect="always"
       id="linearGradient2772">
      <stop
         style="stop-color:#008000;stop-opacity:1;"
         offset="0"
         id="stop2774" />
      <stop
         style="stop-color:#008000;stop-opacity:0;"
         offset="1"
         id="stop2776" />
    </linearGradient>
    <linearGradient
       inkscape:collect="always"
       id="linearGradient2505">
      <stop
         style="stop-color:#008000;stop-opacity:1;"
         offset="0"
         id="stop2507" />
      <stop
         style="stop-color:#008000;stop-opacity:0;"
         offset="1"
         id="stop2509" />
    </linearGradient>
    <inkscape:perspective
       sodipodi:type="inkscape:persp3d"
       inkscape:vp_x="0 : 12 : 1"
       inkscape:vp_y="0 : 1000 : 0"
       inkscape:vp_z="24 : 12 : 1"
       inkscape:persp3d-origin="12 : 8 : 1"
       id="perspective4177" />
    <linearGradient
       id="linearGradient4269">
      <stop
         style="stop-color:#26b000;stop-opacity:1;"
         offset="0"
         id="stop4271" />
      <stop
         style="stop-color:#26b000;stop-opacity:0;"
         offset="1"
         id="stop4273" />
    </linearGradient>
    <linearGradient
       id="linearGradient4183">
      <stop
         id="stop4185"
         offset="0"
         style="stop-color:#26b000;stop-opacity:1;" />
      <stop
         id="stop4187"
         offset="1"
         style="stop-color:#145f00;stop-opacity:1;" />
    </linearGradient>
    <linearGradient
       id="linearGradient4167">
      <stop
         style="stop-color:#80000e;stop-opacity:1;"
         offset="0"
         id="stop4169" />
      <stop
         style="stop-color:#b00014;stop-opacity:0;"
         offset="1"
         id="stop4171" />
    </linearGradient>
    <linearGradient
       inkscape:collect="always"
       xlink:href="#linearGradient2505"
       id="linearGradient2511"
       x1="17.620802"
       y1="9.4159222"
       x2="-3.8121746"
       y2="9.3760633"
       gradientUnits="userSpaceOnUse"
       gradientTransform="matrix(-1.1171976,0,0,1.3356755,20.340918,-0.49566383)" />
    <linearGradient
       inkscape:collect="always"
       xlink:href="#linearGradient2772"
       id="linearGradient2778"
       x1="26.420586"
       y1="3.4565225"
       x2="20.291727"
       y2="-5.2758617"
       gradientUnits="userSpaceOnUse" />
    <linearGradient
       y2="382.47903"
       x2="174.66306"
       y1="118.36168"
       x1="192.86734"
       gradientUnits="userSpaceOnUse"
       id="linearGradient7474"
       xlink:href="#linearGradient3169"
       inkscape:collect="always" />
    <linearGradient
       y2="65.800499"
       x2="226.90887"
       y1="259.03506"
       x1="175.13184"
       gradientUnits="userSpaceOnUse"
       id="linearGradient7472"
       xlink:href="#linearGradient3193"
       inkscape:collect="always" />
    <linearGradient
       y2="507.36868"
       x2="232.48979"
       y1="84.766884"
       x1="196.56534"
       gradientUnits="userSpaceOnUse"
       id="linearGradient7470"
       xlink:href="#linearGradient7453"
       inkscape:collect="always" />
    <filter
       color-interpolation-filters="sRGB"
       inkscape:menu-tooltip="Increase or decrease lightness and contrast"
       inkscape:menu="Color"
       inkscape:label="Lightness-Contrast"
       height="1"
       width="1"
       y="0"
       x="0"
       id="filter6601">
      <feFlood
         flood-color="rgb(128,128,128)"
         flood-opacity="0"
         result="result1"
         id="feFlood6603" />
      <feBlend
         result="result2"
         mode="normal"
         in2="SourceGraphic"
         id="feBlend6605" />
      <feComposite
         result="result3"
         operator="arithmetic"
         k2="1"
         in2="SourceGraphic"
         id="feComposite6607" />
      <feComposite
         operator="in"
         in2="SourceGraphic"
         id="feComposite6609" />
    </filter>
    <inkscape:perspective
       sodipodi:type="inkscape:persp3d"
       inkscape:vp_x="0 : 12 : 1"
       inkscape:vp_y="0 : 1000 : 0"
       inkscape:vp_z="24 : 12 : 1"
       inkscape:persp3d-origin="12 : 8 : 1"
       id="perspective4757" />
    <linearGradient
       id="linearGradient4045">
      <stop
         style="stop-color:#ffffff;stop-opacity:0"
         offset="0"
         id="stop4047" />
      <stop
         style="stop-color:#fcfbcb;stop-opacity:1"
         offset="1"
         id="stop4049" />
    </linearGradient>
    <linearGradient
       id="linearGradient4269-7">
      <stop
         style="stop-color:#1db000;stop-opacity:1;"
         offset="0"
         id="stop4271-0" />
      <stop
         style="stop-color:#1db000;stop-opacity:0;"
         offset="1"
         id="stop4273-6" />
    </linearGradient>
    <linearGradient
       id="linearGradient4183-9">
      <stop
         id="stop4185-1"
         offset="0"
         style="stop-color:#1db000;stop-opacity:1;" />
      <stop
         id="stop4187-4"
         offset="1"
         style="stop-color:#0f5f00;stop-opacity:1;" />
    </linearGradient>
    <linearGradient
       id="linearGradient4167-5">
      <stop
         style="stop-color:#80000e;stop-opacity:1;"
         offset="0"
         id="stop4169-4" />
      <stop
         style="stop-color:#b00014;stop-opacity:0;"
         offset="1"
         id="stop4171-1" />
    </linearGradient>
    <linearGradient
       inkscape:collect="always"
       xlink:href="#linearGradient4183-9"
       id="linearGradient4181"
       x1="10.57493"
       y1="12.115559"
       x2="-0.68574232"
       y2="12.115559"
       gradientUnits="userSpaceOnUse"
       gradientTransform="translate(1.262691,-1.100752)" />
    <linearGradient
       inkscape:collect="always"
       xlink:href="#linearGradient4183-9"
       id="linearGradient4195"
       x1="31.692968"
       y1="11.264216"
       x2="23.888865"
       y2="13.35532"
       gradientUnits="userSpaceOnUse"
       gradientTransform="translate(-0.947018,-0.885198)" />
    <linearGradient
       inkscape:collect="always"
       xlink:href="#linearGradient4183-9"
       id="linearGradient4203"
       x1="15.647213"
       y1="2.7028866"
       x2="14.013638"
       y2="10.576721"
       gradientUnits="userSpaceOnUse" />
    <linearGradient
       inkscape:collect="always"
       xlink:href="#linearGradient4269-7"
       id="linearGradient4256"
       x1="7.8517423"
       y1="15.912388"
       x2="7.1114841"
       y2="11.597325"
       gradientUnits="userSpaceOnUse"
       gradientTransform="translate(0.426158,-2.762136)" />
    <linearGradient
       inkscape:collect="always"
       xlink:href="#linearGradient4269-7"
       id="linearGradient4260"
       gradientUnits="userSpaceOnUse"
       gradientTransform="matrix(-1,0,0,1,32.04188,-2.86473)"
       x1="2.0651877"
       y1="12.625902"
       x2="6.8378897"
       y2="13.920053" />
    <linearGradient
       inkscape:collect="always"
       xlink:href="#linearGradient4183-9"
       id="linearGradient2224"
       x1="16.826796"
       y1="6.7288713"
       x2="27.5625"
       y2="22.512505"
       gradientUnits="userSpaceOnUse"
       gradientTransform="matrix(0.875025,0,0,0.875025,0.666703,0.177907)" />
    <linearGradient
       gradientTransform="matrix(1.62913,0,0,-1.62913,-10.06608,39.71987)"
       gradientUnits="userSpaceOnUse"
       y2="6.6770978"
       x2="15.806232"
       y1="22.874208"
       x1="15.630395"
       id="linearGradient4275"
       xlink:href="#linearGradient4269-7"
       inkscape:collect="always" />
    <linearGradient
       y2="13.920053"
       x2="6.8378897"
       y1="12.625902"
       x1="2.0651877"
       gradientTransform="matrix(-1,0,0,1,32.04188,-2.86473)"
       gradientUnits="userSpaceOnUse"
       id="linearGradient1388"
       xlink:href="#linearGradient4269-7"
       inkscape:collect="always" />
    <linearGradient
       gradientTransform="translate(0.426158,-2.762136)"
       gradientUnits="userSpaceOnUse"
       y2="13.920053"
       x2="6.8378897"
       y1="12.625902"
       x1="2.0651877"
       id="linearGradient1386"
       xlink:href="#linearGradient4269-7"
       inkscape:collect="always" />
    <linearGradient
       gradientUnits="userSpaceOnUse"
       y2="10.576721"
       x2="14.013638"
       y1="2.7028866"
       x1="15.647213"
       id="linearGradient1384"
       xlink:href="#linearGradient4183-9"
       inkscape:collect="always" />
    <linearGradient
       gradientTransform="translate(-0.947018,-0.885198)"
       gradientUnits="userSpaceOnUse"
       y2="12.535715"
       x2="31.31678"
       y1="12.535715"
       x1="24.397505"
       id="linearGradient1382"
       xlink:href="#linearGradient4183-9"
       inkscape:collect="always" />
    <linearGradient
       gradientTransform="translate(1.262691,-1.100752)"
       gradientUnits="userSpaceOnUse"
       y2="12.825893"
       x2="7.9239235"
       y1="12.825893"
       x1="1.0046476"
       id="linearGradient1380"
       xlink:href="#linearGradient4183-9"
       inkscape:collect="always" />
    <linearGradient
       id="linearGradient1374">
      <stop
         id="stop1376"
         offset="0"
         style="stop-color:#80000e;stop-opacity:1;" />
      <stop
         id="stop1378"
         offset="1"
         style="stop-color:#b00014;stop-opacity:0;" />
    </linearGradient>
    <linearGradient
       id="linearGradient1368">
      <stop
         style="stop-color:#26b000;stop-opacity:1;"
         offset="0"
         id="stop1370" />
      <stop
         style="stop-color:#145f00;stop-opacity:1;"
         offset="1"
         id="stop1372" />
    </linearGradient>
    <linearGradient
       id="linearGradient1362">
      <stop
         id="stop1364"
         offset="0"
         style="stop-color:#26b000;stop-opacity:1;" />
      <stop
         id="stop1366"
         offset="1"
         style="stop-color:#26b000;stop-opacity:0;" />
    </linearGradient>
    <linearGradient
       inkscape:collect="always"
       xlink:href="#linearGradient4183-9"
       id="linearGradient1406"
       gradientUnits="userSpaceOnUse"
       x1="15.647213"
       y1="2.7028866"
       x2="14.013638"
       y2="10.576721" />
    <linearGradient
       inkscape:collect="always"
       xlink:href="#linearGradient4183-9"
       id="linearGradient1408"
       gradientUnits="userSpaceOnUse"
       gradientTransform="translate(1.262691,-1.100752)"
       x1="10.57493"
       y1="12.115559"
       x2="-0.68574232"
       y2="12.115559" />
    <linearGradient
       inkscape:collect="always"
       xlink:href="#linearGradient4183-9"
       id="linearGradient1410"
       gradientUnits="userSpaceOnUse"
       gradientTransform="translate(-0.947018,-0.885198)"
       x1="31.692968"
       y1="11.264216"
       x2="23.888865"
       y2="13.35532" />
    <linearGradient
       inkscape:collect="always"
       xlink:href="#linearGradient4269-7"
       id="linearGradient1412"
       gradientUnits="userSpaceOnUse"
       gradientTransform="translate(0.426158,-2.762136)"
       x1="7.8517423"
       y1="15.912388"
       x2="7.1114841"
       y2="11.597325" />
    <linearGradient
       inkscape:collect="always"
       xlink:href="#linearGradient4269-7"
       id="linearGradient1414"
       gradientUnits="userSpaceOnUse"
       gradientTransform="matrix(-1,0,0,1,32.04188,-2.86473)"
       x1="2.0651877"
       y1="12.625902"
       x2="6.8378897"
       y2="13.920053" />
    <radialGradient
       inkscape:collect="always"
       xlink:href="#linearGradient4045"
       id="radialGradient4051"
       cx="19.285715"
       cy="9.8571424"
       fx="19.285715"
       fy="9.8571424"
       r="10.885714"
       gradientUnits="userSpaceOnUse"
       spreadMethod="reflect"
       gradientTransform="matrix(0.418975,0,0,0.418975,11.20548,5.727248)" />
    <linearGradient
       y2="13.920053"
       x2="6.8378897"
       y1="12.625902"
       x1="2.0651877"
       gradientTransform="matrix(-1,0,0,1,32.04188,-2.86473)"
       gradientUnits="userSpaceOnUse"
       id="linearGradient2491-3"
       xlink:href="#linearGradient4269-7"
       inkscape:collect="always" />
    <linearGradient
       y2="12.113755"
       x2="7.293807"
       y1="16.110582"
       x1="11.408385"
       gradientTransform="translate(0.426158,-2.762136)"
       gradientUnits="userSpaceOnUse"
       id="linearGradient2489-6"
       xlink:href="#linearGradient4269-7"
       inkscape:collect="always" />
    <linearGradient
       y2="13.35532"
       x2="23.888865"
       y1="11.264216"
       x1="31.692968"
       gradientTransform="translate(-0.947018,-0.885198)"
       gradientUnits="userSpaceOnUse"
       id="linearGradient2487-3"
       xlink:href="#linearGradient4183-9"
       inkscape:collect="always" />
    <linearGradient
       y2="12.949513"
       x2="2.7672646"
       y1="12.115559"
       x1="10.57493"
       gradientTransform="translate(1.262691,-1.100752)"
       gradientUnits="userSpaceOnUse"
       id="linearGradient2485-2"
       xlink:href="#linearGradient4183-9"
       inkscape:collect="always" />
    <linearGradient
       y2="10.576721"
       x2="14.013638"
       y1="2.7028866"
       x1="15.647213"
       gradientUnits="userSpaceOnUse"
       id="linearGradient2483-7"
       xlink:href="#linearGradient4183-9"
       inkscape:collect="always" />
    <linearGradient
       id="linearGradient2416">
      <stop
         style="stop-color:#26b000;stop-opacity:1;"
         offset="0"
         id="stop2418" />
      <stop
         style="stop-color:#26b000;stop-opacity:0;"
         offset="1"
         id="stop2420" />
    </linearGradient>
    <linearGradient
       id="linearGradient2422">
      <stop
         id="stop2424"
         offset="0"
         style="stop-color:#26b000;stop-opacity:1;" />
      <stop
         id="stop2426"
         offset="1"
         style="stop-color:#145f00;stop-opacity:1;" />
    </linearGradient>
    <linearGradient
       id="linearGradient2428">
      <stop
         style="stop-color:#80000e;stop-opacity:1;"
         offset="0"
         id="stop2430" />
      <stop
         style="stop-color:#b00014;stop-opacity:0;"
         offset="1"
         id="stop2432" />
    </linearGradient>
    <linearGradient
       inkscape:collect="always"
       xlink:href="#linearGradient4183-9"
       id="linearGradient2434"
       x1="1.0046476"
       y1="12.825893"
       x2="7.9239235"
       y2="12.825893"
       gradientUnits="userSpaceOnUse"
       gradientTransform="translate(1.9220986,-1.100752)" />
    <linearGradient
       inkscape:collect="always"
       xlink:href="#linearGradient4183-9"
       id="linearGradient2436"
       x1="24.397505"
       y1="12.535715"
       x2="31.31678"
       y2="12.535715"
       gradientUnits="userSpaceOnUse"
       gradientTransform="translate(-1.9107675,-0.885198)" />
    <linearGradient
       inkscape:collect="always"
       xlink:href="#linearGradient4183-9"
       id="linearGradient2438"
       x1="15.647213"
       y1="2.7028866"
       x2="14.013638"
       y2="10.576721"
       gradientUnits="userSpaceOnUse" />
    <linearGradient
       inkscape:collect="always"
       xlink:href="#linearGradient4269-7"
       id="linearGradient2440"
       x1="2.0651877"
       y1="12.625902"
       x2="6.8378897"
       y2="13.920053"
       gradientUnits="userSpaceOnUse"
       gradientTransform="translate(1.1362892,-2.762136)" />
    <linearGradient
       inkscape:collect="always"
       xlink:href="#linearGradient4269-7"
       id="linearGradient2442"
       gradientUnits="userSpaceOnUse"
       gradientTransform="matrix(-1,0,0,1,31.179578,-2.86473)"
       x1="2.0651877"
       y1="12.625902"
       x2="6.8378897"
       y2="13.920053" />
    <linearGradient
       inkscape:collect="always"
       xlink:href="#linearGradient4269-7"
       id="linearGradient2444"
       x1="15.630395"
       y1="22.874208"
       x2="15.630395"
       y2="8.5305319"
       gradientUnits="userSpaceOnUse"
       gradientTransform="matrix(1.256521,0,0,-1.256521,-7.854319,28.773309)" />
    <radialGradient
       gradientTransform="matrix(0.418975,2.444023e-18,-2.444023e-18,0.418975,11.20548,5.727248)"
       spreadMethod="reflect"
       gradientUnits="userSpaceOnUse"
       r="10.885714"
       fy="9.8571424"
       fx="19.285715"
       cy="9.8571424"
       cx="19.285715"
       id="radialGradient2342"
       xlink:href="#linearGradient4045"
       inkscape:collect="always" />
    <linearGradient
       y2="13.920053"
       x2="6.8378897"
       y1="12.625902"
       x1="2.0651877"
       gradientTransform="matrix(-1,0,0,1,32.04188,-2.86473)"
       gradientUnits="userSpaceOnUse"
       id="linearGradient2340"
       xlink:href="#linearGradient4269-7"
       inkscape:collect="always" />
    <linearGradient
       y2="11.597325"
       x2="7.1114841"
       y1="15.912388"
       x1="7.8517423"
       gradientTransform="translate(0.426158,-2.762136)"
       gradientUnits="userSpaceOnUse"
       id="linearGradient2338"
       xlink:href="#linearGradient4269-7"
       inkscape:collect="always" />
    <linearGradient
       y2="13.35532"
       x2="23.888865"
       y1="11.264216"
       x1="31.692968"
       gradientTransform="translate(-0.947018,-0.885198)"
       gradientUnits="userSpaceOnUse"
       id="linearGradient2336"
       xlink:href="#linearGradient4183-9"
       inkscape:collect="always" />
    <linearGradient
       y2="12.115559"
       x2="-0.68574232"
       y1="12.115559"
       x1="10.57493"
       gradientTransform="translate(1.262691,-1.100752)"
       gradientUnits="userSpaceOnUse"
       id="linearGradient2334"
       xlink:href="#linearGradient4183-9"
       inkscape:collect="always" />
    <linearGradient
       y2="10.576721"
       x2="14.013638"
       y1="2.7028866"
       x1="15.647213"
       gradientUnits="userSpaceOnUse"
       id="linearGradient2332"
       xlink:href="#linearGradient4183-9"
       inkscape:collect="always" />
    <linearGradient
       id="linearGradient2326">
      <stop
         style="stop-color:#26b000;stop-opacity:1;"
         offset="0"
         id="stop2328" />
      <stop
         style="stop-color:#26b000;stop-opacity:0;"
         offset="1"
         id="stop2330" />
    </linearGradient>
    <linearGradient
       id="linearGradient2320">
      <stop
         id="stop2322"
         offset="0"
         style="stop-color:#26b000;stop-opacity:1;" />
      <stop
         id="stop2324"
         offset="1"
         style="stop-color:#145f00;stop-opacity:1;" />
    </linearGradient>
    <linearGradient
       id="linearGradient2314">
      <stop
         style="stop-color:#80000e;stop-opacity:1;"
         offset="0"
         id="stop2316" />
      <stop
         style="stop-color:#b00014;stop-opacity:0;"
         offset="1"
         id="stop2318" />
    </linearGradient>
    <linearGradient
       inkscape:collect="always"
       xlink:href="#linearGradient4183-9"
       id="linearGradient2312"
       x1="1.0046476"
       y1="12.825893"
       x2="7.9239235"
       y2="12.825893"
       gradientUnits="userSpaceOnUse"
       gradientTransform="translate(1.262691,-1.100752)" />
    <linearGradient
       inkscape:collect="always"
       xlink:href="#linearGradient4183-9"
       id="linearGradient2310"
       x1="24.397505"
       y1="12.535715"
       x2="31.31678"
       y2="12.535715"
       gradientUnits="userSpaceOnUse"
       gradientTransform="translate(-0.947018,-0.885198)" />
    <linearGradient
       inkscape:collect="always"
       xlink:href="#linearGradient4183-9"
       id="linearGradient2308"
       x1="15.647213"
       y1="2.7028866"
       x2="14.013638"
       y2="10.576721"
       gradientUnits="userSpaceOnUse" />
    <linearGradient
       inkscape:collect="always"
       xlink:href="#linearGradient4269-7"
       id="linearGradient2306"
       x1="2.0651877"
       y1="12.625902"
       x2="6.8378897"
       y2="13.920053"
       gradientUnits="userSpaceOnUse"
       gradientTransform="translate(0.426158,-2.762136)" />
    <linearGradient
       inkscape:collect="always"
       xlink:href="#linearGradient4269-7"
       id="linearGradient2304"
       gradientUnits="userSpaceOnUse"
       gradientTransform="matrix(-1,0,0,1,32.04188,-2.86473)"
       x1="2.0651877"
       y1="12.625902"
       x2="6.8378897"
       y2="13.920053" />
    <linearGradient
       gradientTransform="matrix(0.875025,0,0,0.875025,0.666703,0.177907)"
       gradientUnits="userSpaceOnUse"
       y2="22.512505"
       x2="27.5625"
       y1="6.7288713"
       x1="16.826796"
       id="linearGradient2302"
       xlink:href="#linearGradient4183-9"
       inkscape:collect="always" />
    <linearGradient
       id="linearGradient2296">
      <stop
         id="stop2298"
         offset="0"
         style="stop-color:#80000e;stop-opacity:1;" />
      <stop
         id="stop2300"
         offset="1"
         style="stop-color:#b00014;stop-opacity:0;" />
    </linearGradient>
    <linearGradient
       id="linearGradient2290">
      <stop
         style="stop-color:#1db000;stop-opacity:1;"
         offset="0"
         id="stop2292" />
      <stop
         style="stop-color:#0f5f00;stop-opacity:1;"
         offset="1"
         id="stop2294" />
    </linearGradient>
    <linearGradient
       id="linearGradient2284">
      <stop
         id="stop2286"
         offset="0"
         style="stop-color:#1db000;stop-opacity:1;" />
      <stop
         id="stop2288"
         offset="1"
         style="stop-color:#1db000;stop-opacity:0;" />
    </linearGradient>
    <linearGradient
       id="linearGradient2278">
      <stop
         id="stop2280"
         offset="0"
         style="stop-color:#ffffff;stop-opacity:0" />
      <stop
         id="stop2282"
         offset="1"
         style="stop-color:#fefee7;stop-opacity:0.89308178" />
    </linearGradient>
    <linearGradient
       inkscape:collect="always"
       id="linearGradient3308">
      <stop
         style="stop-color:#ffffff;stop-opacity:1"
         offset="0"
         id="stop3310" />
      <stop
         style="stop-color:#ffffff;stop-opacity:0"
         offset="1"
         id="stop3312" />
    </linearGradient>
    <linearGradient
       id="linearGradient3289"
       inkscape:collect="always">
      <stop
         id="stop3291"
         offset="0"
         style="stop-color:#999999;stop-opacity:1" />
      <stop
         id="stop3293"
         offset="1"
         style="stop-color:#000000;stop-opacity:1" />
    </linearGradient>
    <linearGradient
       inkscape:collect="always"
       id="linearGradient3193">
      <stop
         style="stop-color:#ffffff;stop-opacity:1"
         offset="0"
         id="stop3195" />
      <stop
         style="stop-color:#000000;stop-opacity:1"
         offset="1"
         id="stop3197" />
    </linearGradient>
    <linearGradient
       id="linearGradient3181">
      <stop
         id="stop3183"
         offset="0"
         style="stop-color:#ff0000;stop-opacity:1;" />
      <stop
         style="stop-color:#ff0000;stop-opacity:0.65271967"
         offset="0.11529652"
         id="stop3185" />
      <stop
         id="stop3187"
         offset="1"
         style="stop-color:#000000;stop-opacity:0.15481172" />
    </linearGradient>
    <linearGradient
       id="linearGradient3169">
      <stop
         id="stop3171"
         offset="0"
         style="stop-color:#ff0000;stop-opacity:1;" />
      <stop
         id="stop3173"
         offset="1"
         style="stop-color:#ff0000;stop-opacity:0;" />
    </linearGradient>
    <linearGradient
       id="linearGradient2385">
      <stop
         style="stop-color:#ff0000;stop-opacity:1;"
         offset="0"
         id="stop2387" />
      <stop
         id="stop3175"
         offset="0.87037039"
         style="stop-color:#ff0000;stop-opacity:0.55172414;" />
      <stop
         style="stop-color:#ff0000;stop-opacity:1;"
         offset="1"
         id="stop2389" />
    </linearGradient>
    <inkscape:perspective
       sodipodi:type="inkscape:persp3d"
       inkscape:vp_x="0 : 526.18109 : 1"
       inkscape:vp_y="0 : 1000 : 0"
       inkscape:vp_z="744.09448 : 526.18109 : 1"
       inkscape:persp3d-origin="372.04724 : 350.78739 : 1"
       id="perspective10" />
    <radialGradient
       inkscape:collect="always"
       xlink:href="#linearGradient2385"
       id="radialGradient3163"
       cx="184.85791"
       cy="163.42795"
       fx="184.85791"
       fy="163.42795"
       r="140.91121"
       gradientUnits="userSpaceOnUse" />
    <linearGradient
       inkscape:collect="always"
       xlink:href="#linearGradient3181"
       id="linearGradient3179"
       x1="175.76654"
       y1="316.97113"
       x2="184.85791"
       y2="23.016739"
       gradientUnits="userSpaceOnUse" />
    <linearGradient
       inkscape:collect="always"
       xlink:href="#linearGradient3193"
       id="linearGradient3199"
       x1="204.55589"
       y1="262.45413"
       x2="204.55589"
       y2="62.412689"
       gradientUnits="userSpaceOnUse" />
    <linearGradient
       inkscape:collect="always"
       xlink:href="#linearGradient3193"
       id="linearGradient3203"
       gradientUnits="userSpaceOnUse"
       x1="175.13184"
       y1="259.03506"
       x2="226.90887"
       y2="65.800499" />
    <linearGradient
       inkscape:collect="always"
       xlink:href="#linearGradient3193"
       id="linearGradient3211"
       gradientUnits="userSpaceOnUse"
       x1="204.55589"
       y1="262.45413"
       x2="204.55589"
       y2="62.412689" />
    <linearGradient
       inkscape:collect="always"
       xlink:href="#linearGradient3193"
       id="linearGradient3213"
       gradientUnits="userSpaceOnUse"
       x1="204.55589"
       y1="262.45413"
       x2="204.55589"
       y2="62.412689" />
    <linearGradient
       inkscape:collect="always"
       xlink:href="#linearGradient3289"
       id="linearGradient3287"
       gradientUnits="userSpaceOnUse"
       x1="224.26379"
       y1="259.7438"
       x2="172.07999"
       y2="66.61824" />
    <linearGradient
       inkscape:collect="always"
       xlink:href="#linearGradient3289"
       id="linearGradient3301"
       gradientUnits="userSpaceOnUse"
       x1="224.26379"
       y1="259.7438"
       x2="172.07999"
       y2="66.61824"
       gradientTransform="matrix(-1.1122783,-0.2980341,0.2980341,-1.1122783,376.2049,402.98248)" />
    <linearGradient
       inkscape:collect="always"
       xlink:href="#linearGradient3308"
       id="linearGradient3306"
       gradientUnits="userSpaceOnUse"
       gradientTransform="matrix(-1.1122783,-0.2980341,0.2980341,-1.1122783,306.50437,364.59668)"
       x1="160.2529"
       y1="-5.1353641"
       x2="224.82684"
       y2="168.2903" />
    <linearGradient
       inkscape:collect="always"
       xlink:href="#linearGradient3289"
       id="linearGradient3322"
       gradientUnits="userSpaceOnUse"
       x1="224.26379"
       y1="259.7438"
       x2="172.07999"
       y2="66.61824" />
    <linearGradient
       inkscape:collect="always"
       xlink:href="#linearGradient3193"
       id="linearGradient3324"
       gradientUnits="userSpaceOnUse"
       x1="175.13184"
       y1="259.03506"
       x2="226.90887"
       y2="65.800499" />
    <linearGradient
       inkscape:collect="always"
       xlink:href="#linearGradient3308"
       id="linearGradient3326"
       gradientUnits="userSpaceOnUse"
       gradientTransform="matrix(-1.1122783,-0.2980341,0.2980341,-1.1122783,747.63347,397.26819)"
       x1="160.2529"
       y1="-5.1353641"
       x2="224.82684"
       y2="168.2903" />
    <linearGradient
       inkscape:collect="always"
       xlink:href="#linearGradient3289"
       id="linearGradient3336"
       gradientUnits="userSpaceOnUse"
       x1="224.26379"
       y1="259.7438"
       x2="172.07999"
       y2="66.61824" />
    <linearGradient
       inkscape:collect="always"
       xlink:href="#linearGradient3193"
       id="linearGradient3338"
       gradientUnits="userSpaceOnUse"
       x1="175.13184"
       y1="259.03506"
       x2="226.90887"
       y2="65.800499" />
    <linearGradient
       inkscape:collect="always"
       xlink:href="#linearGradient3308"
       id="linearGradient3340"
       gradientUnits="userSpaceOnUse"
       gradientTransform="matrix(-1.1122783,-0.2980341,0.2980341,-1.1122783,558.73494,665.96877)"
       x1="160.2529"
       y1="-5.1353641"
       x2="224.82684"
       y2="168.2903" />
    <linearGradient
       inkscape:collect="always"
       xlink:href="#linearGradient3289"
       id="linearGradient3360"
       gradientUnits="userSpaceOnUse"
       x1="224.26379"
       y1="259.7438"
       x2="172.07999"
       y2="66.61824" />
    <linearGradient
       inkscape:collect="always"
       xlink:href="#linearGradient3193"
       id="linearGradient2641"
       gradientUnits="userSpaceOnUse"
       x1="175.13184"
       y1="259.03506"
       x2="226.90887"
       y2="65.800499" />
    <linearGradient
       inkscape:collect="always"
       xlink:href="#linearGradient3308"
       id="linearGradient3364"
       gradientUnits="userSpaceOnUse"
       gradientTransform="matrix(-1.1122783,-0.2980341,0.2980341,-1.1122783,558.73494,665.96877)"
       x1="160.2529"
       y1="-5.1353641"
       x2="224.82684"
       y2="168.2903" />
    <linearGradient
       inkscape:collect="always"
       xlink:href="#linearGradient3289"
       id="linearGradient3366"
       gradientUnits="userSpaceOnUse"
       x1="224.26379"
       y1="259.7438"
       x2="172.07999"
       y2="66.61824" />
    <linearGradient
       inkscape:collect="always"
       xlink:href="#linearGradient3193"
       id="linearGradient3368"
       gradientUnits="userSpaceOnUse"
       x1="175.13184"
       y1="259.03506"
       x2="226.90887"
       y2="65.800499" />
    <linearGradient
       inkscape:collect="always"
       xlink:href="#linearGradient3308"
       id="linearGradient2646"
       gradientUnits="userSpaceOnUse"
       gradientTransform="matrix(-1.1122783,-0.2980341,0.2980341,-1.1122783,747.63347,397.26819)"
       x1="160.2529"
       y1="-5.1353641"
       x2="224.82684"
       y2="168.2903" />
    <linearGradient
       y2="13.920053"
       x2="6.8378897"
       y1="12.625902"
       x1="2.0651877"
       gradientTransform="matrix(-1,0,0,1,32.04188,-2.86473)"
       gradientUnits="userSpaceOnUse"
       id="linearGradient2845"
       xlink:href="#linearGradient4269-7"
       inkscape:collect="always" />
    <linearGradient
       y2="11.597325"
       x2="7.1114841"
       y1="15.912388"
       x1="7.8517423"
       gradientTransform="translate(0.426158,-2.762136)"
       gradientUnits="userSpaceOnUse"
       id="linearGradient2843"
       xlink:href="#linearGradient4269-7"
       inkscape:collect="always" />
    <linearGradient
       y2="13.35532"
       x2="23.888865"
       y1="11.264216"
       x1="31.692968"
       gradientTransform="translate(-0.947018,-0.885198)"
       gradientUnits="userSpaceOnUse"
       id="linearGradient2841"
       xlink:href="#linearGradient4183-9"
       inkscape:collect="always" />
    <linearGradient
       y2="12.115559"
       x2="-0.68574232"
       y1="12.115559"
       x1="10.57493"
       gradientTransform="translate(1.262691,-1.100752)"
       gradientUnits="userSpaceOnUse"
       id="linearGradient2839"
       xlink:href="#linearGradient4183-9"
       inkscape:collect="always" />
    <linearGradient
       y2="10.576721"
       x2="14.013638"
       y1="2.7028866"
       x1="15.647213"
       gradientUnits="userSpaceOnUse"
       id="linearGradient2837"
       xlink:href="#linearGradient4183-9"
       inkscape:collect="always" />
    <linearGradient
       id="linearGradient2831">
      <stop
         style="stop-color:#26b000;stop-opacity:1;"
         offset="0"
         id="stop2833" />
      <stop
         style="stop-color:#26b000;stop-opacity:0;"
         offset="1"
         id="stop2835" />
    </linearGradient>
    <linearGradient
       id="linearGradient2825">
      <stop
         id="stop2827"
         offset="0"
         style="stop-color:#26b000;stop-opacity:1;" />
      <stop
         id="stop2829"
         offset="1"
         style="stop-color:#145f00;stop-opacity:1;" />
    </linearGradient>
    <linearGradient
       id="linearGradient2819">
      <stop
         style="stop-color:#80000e;stop-opacity:1;"
         offset="0"
         id="stop2821" />
      <stop
         style="stop-color:#b00014;stop-opacity:0;"
         offset="1"
         id="stop2823" />
    </linearGradient>
    <linearGradient
       inkscape:collect="always"
       xlink:href="#linearGradient4183-9"
       id="linearGradient2817"
       x1="1.0046476"
       y1="12.825893"
       x2="7.9239235"
       y2="12.825893"
       gradientUnits="userSpaceOnUse"
       gradientTransform="translate(1.262691,-1.100752)" />
    <linearGradient
       inkscape:collect="always"
       xlink:href="#linearGradient4183-9"
       id="linearGradient2815"
       x1="24.397505"
       y1="12.535715"
       x2="31.31678"
       y2="12.535715"
       gradientUnits="userSpaceOnUse"
       gradientTransform="translate(-0.947018,-0.885198)" />
    <linearGradient
       inkscape:collect="always"
       xlink:href="#linearGradient4183-9"
       id="linearGradient2813"
       x1="15.647213"
       y1="2.7028866"
       x2="14.013638"
       y2="10.576721"
       gradientUnits="userSpaceOnUse" />
    <linearGradient
       inkscape:collect="always"
       xlink:href="#linearGradient4269-7"
       id="linearGradient2811"
       x1="2.0651877"
       y1="12.625902"
       x2="6.8378897"
       y2="13.920053"
       gradientUnits="userSpaceOnUse"
       gradientTransform="translate(0.426158,-2.762136)" />
    <linearGradient
       inkscape:collect="always"
       xlink:href="#linearGradient4269-7"
       id="linearGradient2809"
       gradientUnits="userSpaceOnUse"
       gradientTransform="matrix(-1,0,0,1,32.04188,-2.86473)"
       x1="2.0651877"
       y1="12.625902"
       x2="6.8378897"
       y2="13.920053" />
    <linearGradient
       gradientTransform="matrix(0.875025,0,0,0.875025,0.666703,0.177907)"
       gradientUnits="userSpaceOnUse"
       y2="22.512505"
       x2="27.5625"
       y1="6.7288713"
       x1="16.826796"
       id="linearGradient2807"
       xlink:href="#linearGradient4183-9"
       inkscape:collect="always" />
    <linearGradient
       id="linearGradient2801">
      <stop
         id="stop2803"
         offset="0"
         style="stop-color:#80000e;stop-opacity:1;" />
      <stop
         id="stop2805"
         offset="1"
         style="stop-color:#b00014;stop-opacity:0;" />
    </linearGradient>
    <linearGradient
       id="linearGradient2795">
      <stop
         style="stop-color:#1db000;stop-opacity:1;"
         offset="0"
         id="stop2797" />
      <stop
         style="stop-color:#0f5f00;stop-opacity:1;"
         offset="1"
         id="stop2799" />
    </linearGradient>
    <linearGradient
       id="linearGradient2789">
      <stop
         id="stop2791"
         offset="0"
         style="stop-color:#1db000;stop-opacity:1;" />
      <stop
         id="stop2793"
         offset="1"
         style="stop-color:#1db000;stop-opacity:0;" />
    </linearGradient>
    <linearGradient
       id="linearGradient2783">
      <stop
         id="stop2785"
         offset="0"
         style="stop-color:#ffffff;stop-opacity:0" />
      <stop
         id="stop2787"
         offset="1"
         style="stop-color:#fcfbcb;stop-opacity:1" />
    </linearGradient>
    <linearGradient
       id="linearGradient3362">
      <stop
         id="stop3364"
         offset="0"
         style="stop-color:#000000;stop-opacity:1;" />
      <stop
         id="stop3366"
         offset="1"
         style="stop-color:#ffffff;stop-opacity:1;" />
    </linearGradient>
    <linearGradient
       id="linearGradient3370">
      <stop
         id="stop3372"
         offset="0"
         style="stop-color:#d7d7d7;stop-opacity:1;" />
      <stop
         id="stop3374"
         offset="1"
         style="stop-color:#7c7c7c;stop-opacity:1;" />
    </linearGradient>
    <inkscape:perspective
       id="perspective4283"
       inkscape:persp3d-origin="8 : 5.3333333 : 1"
       inkscape:vp_z="16 : 8 : 1"
       inkscape:vp_y="0 : 1000 : 0"
       inkscape:vp_x="0 : 8 : 1"
       sodipodi:type="inkscape:persp3d" />
    <linearGradient
       gradientUnits="userSpaceOnUse"
       y2="16.739393"
       x2="32.578228"
       y1="-0.80084854"
       x1="2.965755"
       id="linearGradient2439"
       xlink:href="#linearGradient2433"
       inkscape:collect="always" />
    <linearGradient
       id="linearGradient2433"
       inkscape:collect="always">
      <stop
         id="stop2435"
         offset="0"
         style="stop-color:#008000;stop-opacity:1;" />
      <stop
         id="stop2437"
         offset="1"
         style="stop-color:#008000;stop-opacity:0;" />
    </linearGradient>
    <linearGradient
       y2="10.576721"
       x2="14.013638"
       y1="2.7028866"
       x1="15.647213"
       gradientUnits="userSpaceOnUse"
       id="linearGradient2770"
       xlink:href="#linearGradient4183-9"
       inkscape:collect="always" />
    <linearGradient
       y2="12.115559"
       x2="-0.68574232"
       y1="12.115559"
       x1="10.57493"
       gradientTransform="translate(1.262691,-1.100752)"
       gradientUnits="userSpaceOnUse"
       id="linearGradient2768"
       xlink:href="#linearGradient4183-9"
       inkscape:collect="always" />
    <linearGradient
       y2="13.35532"
       x2="23.888865"
       y1="11.264216"
       x1="31.692968"
       gradientTransform="translate(-0.947018,-0.885198)"
       gradientUnits="userSpaceOnUse"
       id="linearGradient2766"
       xlink:href="#linearGradient4183-9"
       inkscape:collect="always" />
    <linearGradient
       y2="11.597325"
       x2="7.1114841"
       y1="15.912388"
       x1="7.8517423"
       gradientTransform="translate(0.426158,-2.762136)"
       gradientUnits="userSpaceOnUse"
       id="linearGradient2764"
       xlink:href="#linearGradient4269-7"
       inkscape:collect="always" />
    <linearGradient
       y2="13.920053"
       x2="6.8378897"
       y1="12.625902"
       x1="2.0651877"
       gradientTransform="matrix(-1,0,0,1,32.04188,-2.86473)"
       gradientUnits="userSpaceOnUse"
       id="linearGradient2762"
       xlink:href="#linearGradient4269-7"
       inkscape:collect="always" />
    <linearGradient
       inkscape:collect="always"
       xlink:href="#linearGradient4183-9"
       id="linearGradient2917"
       gradientUnits="userSpaceOnUse"
       x1="15.647213"
       y1="2.7028866"
       x2="14.013638"
       y2="10.576721" />
    <linearGradient
       inkscape:collect="always"
       xlink:href="#linearGradient4183-9"
       id="linearGradient2919"
       gradientUnits="userSpaceOnUse"
       gradientTransform="translate(1.262691,-1.100752)"
       x1="10.57493"
       y1="12.115559"
       x2="2.7672646"
       y2="12.949513" />
    <linearGradient
       inkscape:collect="always"
       xlink:href="#linearGradient4183-9"
       id="linearGradient2921"
       gradientUnits="userSpaceOnUse"
       gradientTransform="translate(-0.947018,-0.885198)"
       x1="31.692968"
       y1="11.264216"
       x2="23.888865"
       y2="13.35532" />
    <linearGradient
       inkscape:collect="always"
       xlink:href="#linearGradient4269-7"
       id="linearGradient2923"
       gradientUnits="userSpaceOnUse"
       gradientTransform="translate(0.426158,-2.762136)"
       x1="11.408385"
       y1="16.110582"
       x2="7.293807"
       y2="12.113755" />
    <linearGradient
       inkscape:collect="always"
       xlink:href="#linearGradient4269-7"
       id="linearGradient2925"
       gradientUnits="userSpaceOnUse"
       gradientTransform="matrix(-1,0,0,1,32.04188,-2.86473)"
       x1="2.0651877"
       y1="12.625902"
       x2="6.8378897"
       y2="13.920053" />
    <linearGradient
       gradientUnits="userSpaceOnUse"
       y2="-5.2758617"
       x2="20.291727"
       y1="3.4565225"
       x1="26.420586"
       id="linearGradient2778-1"
       xlink:href="#linearGradient2772-5"
       inkscape:collect="always" />
    <linearGradient
       gradientTransform="matrix(1.1171849,-0.00531668,-0.0063564,-1.3356604,3.7768335,24.412045)"
       gradientUnits="userSpaceOnUse"
       y2="9.3760633"
       x2="-3.8121746"
       y1="9.4159222"
       x1="17.620802"
       id="linearGradient2511-0"
       xlink:href="#linearGradient2505-8"
       inkscape:collect="always" />
    <linearGradient
       id="linearGradient4167-8">
      <stop
         id="stop4169-8"
         offset="0"
         style="stop-color:#80000e;stop-opacity:1;" />
      <stop
         id="stop4171-2"
         offset="1"
         style="stop-color:#b00014;stop-opacity:0;" />
    </linearGradient>
    <linearGradient
       id="linearGradient4183-6">
      <stop
         style="stop-color:#26b000;stop-opacity:1;"
         offset="0"
         id="stop4185-4" />
      <stop
         style="stop-color:#145f00;stop-opacity:1;"
         offset="1"
         id="stop4187-7" />
    </linearGradient>
    <linearGradient
       id="linearGradient4269-70">
      <stop
         id="stop4271-4"
         offset="0"
         style="stop-color:#26b000;stop-opacity:1;" />
      <stop
         id="stop4273-68"
         offset="1"
         style="stop-color:#26b000;stop-opacity:0;" />
    </linearGradient>
    <inkscape:perspective
       id="perspective4177-1"
       inkscape:persp3d-origin="12 : 8 : 1"
       inkscape:vp_z="24 : 12 : 1"
       inkscape:vp_y="0 : 1000 : 0"
       inkscape:vp_x="0 : 12 : 1"
       sodipodi:type="inkscape:persp3d" />
    <linearGradient
       id="linearGradient2505-8"
       inkscape:collect="always">
      <stop
         id="stop2507-7"
         offset="0"
         style="stop-color:#008000;stop-opacity:1;" />
      <stop
         id="stop2509-1"
         offset="1"
         style="stop-color:#008000;stop-opacity:0;" />
    </linearGradient>
    <linearGradient
       id="linearGradient2772-5"
       inkscape:collect="always">
      <stop
         id="stop2774-5"
         offset="0"
         style="stop-color:#008000;stop-opacity:1;" />
      <stop
         id="stop2776-7"
         offset="1"
         style="stop-color:#008000;stop-opacity:0;" />
    </linearGradient>
    <linearGradient
       inkscape:collect="always"
       xlink:href="#linearGradient4183-6"
       id="linearGradient2483-1"
       gradientUnits="userSpaceOnUse"
       x1="15.647213"
       y1="2.7028866"
       x2="14.013638"
       y2="10.576721" />
    <linearGradient
       inkscape:collect="always"
       xlink:href="#linearGradient4183-6"
       id="linearGradient2485-6"
       gradientUnits="userSpaceOnUse"
       gradientTransform="translate(1.262691,-1.100752)"
       x1="10.57493"
       y1="12.115559"
       x2="2.7672646"
       y2="12.949513" />
    <linearGradient
       inkscape:collect="always"
       xlink:href="#linearGradient4183-6"
       id="linearGradient2487-5"
       gradientUnits="userSpaceOnUse"
       gradientTransform="translate(-0.947018,-0.885198)"
       x1="31.692968"
       y1="11.264216"
       x2="23.888865"
       y2="13.35532" />
    <linearGradient
       inkscape:collect="always"
       xlink:href="#linearGradient4269-70"
       id="linearGradient2489-5"
       gradientUnits="userSpaceOnUse"
       gradientTransform="translate(0.426158,-2.762136)"
       x1="11.408385"
       y1="16.110582"
       x2="7.293807"
       y2="12.113755" />
    <linearGradient
       inkscape:collect="always"
       xlink:href="#linearGradient4269-70"
       id="linearGradient2491-7"
       gradientUnits="userSpaceOnUse"
       gradientTransform="matrix(-1,0,0,1,32.04188,-2.86473)"
       x1="2.0651877"
       y1="12.625902"
       x2="6.8378897"
       y2="13.920053" />
    <linearGradient
       id="linearGradient7453"
       inkscape:collect="always">
      <stop
         id="stop7455"
         offset="0"
         style="stop-color:#917c6f;stop-opacity:1;" />
      <stop
         id="stop7457"
         offset="1"
         style="stop-color:#917c6f;stop-opacity:0;" />
    </linearGradient>
    <linearGradient
       inkscape:collect="always"
       xlink:href="#linearGradient2505-8"
       id="linearGradient3814"
       gradientUnits="userSpaceOnUse"
       gradientTransform="matrix(1.1171849,-0.00531668,-0.0063564,-1.3356604,51.779088,60.964332)"
       x1="17.620802"
       y1="9.4159222"
       x2="-3.8121746"
       y2="9.3760633" />
    <linearGradient
       inkscape:collect="always"
       xlink:href="#linearGradient7453"
       id="linearGradient3816"
       gradientUnits="userSpaceOnUse"
       x1="196.56534"
       y1="84.766884"
       x2="232.48979"
       y2="507.36868" />
    <linearGradient
       inkscape:collect="always"
       xlink:href="#linearGradient3193"
       id="linearGradient3818"
       gradientUnits="userSpaceOnUse"
       x1="175.13184"
       y1="259.03506"
       x2="226.90887"
       y2="65.800499" />
    <linearGradient
       inkscape:collect="always"
       xlink:href="#linearGradient3169"
       id="linearGradient3820"
       gradientUnits="userSpaceOnUse"
       x1="192.86734"
       y1="118.36168"
       x2="174.66306"
       y2="382.47903" />
  </defs>
  <sodipodi:namedview
     id="base"
     pagecolor="#ffffff"
     bordercolor="#666666"
     borderopacity="1.0"
     inkscape:pageopacity="0.0"
     inkscape:pageshadow="2"
     inkscape:zoom="11.313708"
     inkscape:cx="18.87396"
     inkscape:cy="2.756874"
     inkscape:document-units="px"
     inkscape:current-layer="layer1"
     width="32px"
     height="32px"
     showguides="true"
     inkscape:guide-bbox="true"
     inkscape:window-width="1920"
     inkscape:window-height="1056"
     inkscape:window-x="0"
     inkscape:window-y="24"
     showgrid="false"
     inkscape:window-maximized="1">
    <sodipodi:guide
       orientation="vertical"
       position="16.970563,9.4575536"
       id="guide3146" />
  </sodipodi:namedview>
  <metadata
     id="metadata7">
    <rdf:RDF>
      <cc:Work
         rdf:about="">
        <dc:format>image/svg+xml</dc:format>
        <dc:type
           rdf:resource="http://purl.org/dc/dcmitype/StillImage" />
        <dc:title></dc:title>
      </cc:Work>
    </rdf:RDF>
  </metadata>
  <g
     inkscape:label="Calque 1"
     inkscape:groupmode="layer"
     id="layer1">
    <path
       style="fill:url(#linearGradient2511);fill-opacity:1;stroke:none"
       d="m 24.599869,5.4718417 -13.906209,0 0,-5.40203797 L 0.16530119,12.027714 10.69366,23.985623 l 0,-5.40204 13.906209,0 0,-13.1117413 z"
       id="rect4262" />
    <g
       id="layer1-5"
       inkscape:label="Calque 1"
       transform="matrix(0.43821304,0,0,0.40558424,-0.22830026,2.2128025)">
      <g
         transform="matrix(2.4164115,0,0,2.4438688,-160.27663,6.5985522)"
         inkscape:label="Calque 1"
         id="g2892">
        <g
           id="g2651"
           inkscape:label="Layer 1"
           transform="matrix(0.04906485,-0.08353627,0.08852343,0.04843305,49.877826,5.6034844)"
           style="filter:url(#filter6601)">
          <g
             id="g7476"
             transform="translate(210.38265,265.28133)">
            <path
               transform="matrix(5.244401,9.0454282,-10.647671,5.9015607,204.71791,207.02179)"
               d="m -33.145631,5.7478056 c 0,2.3675537 -2.136932,4.2868354 -4.772971,4.2868354 -2.636039,0 -4.772971,-1.9192817 -4.772971,-4.2868354 0,-2.3675537 2.136932,-4.2868352 4.772971,-4.2868352 2.636039,0 4.772971,1.9192815 4.772971,4.2868352 z"
               sodipodi:ry="4.2868352"
               sodipodi:rx="4.7729712"
               sodipodi:cy="5.7478056"
               sodipodi:cx="-37.918602"
               id="path7461"
               style="fill:#b3b3b3"
               sodipodi:type="arc" />
            <g
               transform="translate(-150.91149,21.410404)"
               id="g7464">
              <path
                 transform="matrix(2.0512546,3.5379594,-3.7070547,2.054666,156.76626,98.943616)"
                 style="fill:none;stroke:#008000;stroke-width:0.50400001;stroke-linecap:round;stroke-linejoin:miter;stroke-miterlimit:4;stroke-opacity:0;stroke-dasharray:none;stroke-dashoffset:0;marker:none;visibility:visible;display:inline;overflow:visible"
                 d="m -49.348507,-7.8602722 c 0.462002,-1.090337 0.745938,-2.5979968 0.745938,-4.2500038 0,-1.652006 -0.283936,-3.159666 -0.745938,-4.250003"
                 id="path3488"
                 sodipodi:nodetypes="csc"
                 inkscape:connector-curvature="0" />
              <path
                 transform="matrix(-0.49838243,-0.12430329,0.13354118,-0.46390614,173.04911,-23.032546)"
                 d="m 301.02545,162.41779 c 0,55.23129 -44.77381,100.00509 -100.00509,100.00509 -55.23129,0 -100.0051,-44.7738 -100.0051,-100.00509 0,-55.23129 44.77381,-100.005101 100.0051,-100.005101 55.23128,0 100.00509,44.773811 100.00509,100.005101 z"
                 sodipodi:ry="100.0051"
                 sodipodi:rx="100.0051"
                 sodipodi:cy="162.41779"
                 sodipodi:cx="201.02036"
                 id="path3209"
                 style="fill:url(#linearGradient3816);fill-opacity:1;stroke:none"
                 sodipodi:type="arc" />
              <path
                 transform="matrix(0.40874981,-0.10194769,0.10952417,0.38047398,-5.4021514,-164.66883)"
                 d="m 301.02545,162.41779 c 0,55.23129 -44.77381,100.00509 -100.00509,100.00509 -55.23129,0 -100.0051,-44.7738 -100.0051,-100.00509 0,-55.23129 44.77381,-100.005101 100.0051,-100.005101 55.23128,0 100.00509,44.773811 100.00509,100.005101 z"
                 sodipodi:ry="100.0051"
                 sodipodi:rx="100.0051"
                 sodipodi:cy="162.41779"
                 sodipodi:cx="201.02036"
                 id="path3201"
                 style="opacity:0.24886876;fill:url(#linearGradient3818);fill-opacity:1;stroke:none"
                 sodipodi:type="arc" />
              <path
                 transform="matrix(-0.49838243,-0.12430329,0.13354118,-0.46390614,172.63536,-23.746159)"
                 d="m 279.30514,162.41779 c 0,43.66128 -35.04929,79.05574 -78.28478,79.05574 -43.2355,0 -78.28479,-35.39446 -78.28479,-79.05574 0,-43.66128 35.04929,-79.055745 78.28479,-79.055745 43.23549,0 78.28478,35.394465 78.28478,79.055745 z"
                 sodipodi:ry="79.05574"
                 sodipodi:rx="78.284782"
                 sodipodi:cy="162.41779"
                 sodipodi:cx="201.02036"
                 id="path3295"
                 style="opacity:0.59728507;fill:url(#linearGradient3820);fill-opacity:1;stroke:none"
                 sodipodi:type="arc" />
            </g>
          </g>
        </g>
      </g>
    </g>
  </g>
</svg>
